module gitlab.com/gitlab-org/gitlab/workhorse

go 1.18

require (
	github.com/Azure/azure-sdk-for-go/sdk/storage/azblob v1.0.0
	github.com/BurntSushi/toml v1.2.1
	github.com/FZambia/sentinel v1.1.1
	github.com/alecthomas/chroma/v2 v2.5.0
	github.com/aws/aws-sdk-go v1.44.218
	github.com/disintegration/imaging v1.6.2
	github.com/getsentry/raven-go v0.2.0
	github.com/golang-jwt/jwt/v4 v4.5.0
	github.com/golang/gddo v0.0.0-20210115222349-20d68f94ee1f
	github.com/golang/protobuf v1.5.3
	github.com/gomodule/redigo v2.0.0+incompatible
	github.com/gorilla/websocket v1.5.0
	github.com/grpc-ecosystem/go-grpc-middleware v1.3.0
	github.com/grpc-ecosystem/go-grpc-prometheus v1.2.0
	github.com/johannesboyne/gofakes3 v0.0.0-20230310080033-c0edf658332b
	github.com/jpillora/backoff v1.0.0
	github.com/mitchellh/copystructure v1.2.0
	github.com/prometheus/client_golang v1.14.0
	github.com/rafaeljusto/redigomock/v3 v3.1.2
	github.com/sebest/xff v0.0.0-20210106013422-671bd2870b3a
	github.com/sirupsen/logrus v1.9.0
	github.com/smartystreets/goconvey v1.7.2
	github.com/stretchr/testify v1.8.2
	gitlab.com/gitlab-org/gitaly/v15 v15.9.3
	gitlab.com/gitlab-org/golang-archive-zip v0.1.1
	gitlab.com/gitlab-org/labkit v1.18.0
	gocloud.dev v0.29.0
	golang.org/x/image v0.5.0
	golang.org/x/lint v0.0.0-20210508222113-6edffad5e616
	golang.org/x/net v0.7.0
	golang.org/x/oauth2 v0.5.0
	golang.org/x/tools v0.6.0
	google.golang.org/grpc v1.53.0
	google.golang.org/protobuf v1.29.1
	honnef.co/go/tools v0.3.3
)

require (
	cloud.google.com/go v0.109.0 // indirect
	cloud.google.com/go/compute v1.18.0 // indirect
	cloud.google.com/go/compute/metadata v0.2.3 // indirect
	cloud.google.com/go/iam v0.10.0 // indirect
	cloud.google.com/go/monitoring v1.12.0 // indirect
	cloud.google.com/go/profiler v0.1.0 // indirect
	cloud.google.com/go/storage v1.29.0 // indirect
	cloud.google.com/go/trace v1.8.0 // indirect
	contrib.go.opencensus.io/exporter/stackdriver v0.13.14 // indirect
	github.com/Azure/azure-sdk-for-go/sdk/azcore v1.3.1 // indirect
	github.com/Azure/azure-sdk-for-go/sdk/azidentity v1.2.1 // indirect
	github.com/Azure/azure-sdk-for-go/sdk/internal v1.1.2 // indirect
	github.com/Azure/go-autorest v14.2.0+incompatible // indirect
	github.com/Azure/go-autorest/autorest/to v0.4.0 // indirect
	github.com/AzureAD/microsoft-authentication-library-for-go v0.8.1 // indirect
	github.com/DataDog/datadog-go v4.4.0+incompatible // indirect
	github.com/DataDog/sketches-go v1.0.0 // indirect
	github.com/Microsoft/go-winio v0.5.1 // indirect
	github.com/StackExchange/wmi v0.0.0-20190523213315-cbe66965904d // indirect
	github.com/beevik/ntp v0.3.0 // indirect
	github.com/beorn7/perks v1.0.1 // indirect
	github.com/census-instrumentation/opencensus-proto v0.4.1 // indirect
	github.com/certifi/gocertifi v0.0.0-20210507211836-431795d63e8d // indirect
	github.com/cespare/xxhash/v2 v2.2.0 // indirect
	github.com/client9/reopen v1.0.0 // indirect
	github.com/davecgh/go-spew v1.1.1 // indirect
	github.com/dlclark/regexp2 v1.4.0 // indirect
	github.com/go-ole/go-ole v1.2.4 // indirect
	github.com/gogo/protobuf v1.3.2 // indirect
	github.com/golang/groupcache v0.0.0-20210331224755-41bb18bfe9da // indirect
	github.com/google/go-cmp v0.5.9 // indirect
	github.com/google/pprof v0.0.0-20230111200839-76d1ae5aea2b // indirect
	github.com/google/uuid v1.3.0 // indirect
	github.com/google/wire v0.5.0 // indirect
	github.com/googleapis/enterprise-certificate-proxy v0.2.3 // indirect
	github.com/googleapis/gax-go/v2 v2.7.0 // indirect
	github.com/gopherjs/gopherjs v0.0.0-20181017120253-0766667cb4d1 // indirect
	github.com/hashicorp/yamux v0.1.1 // indirect
	github.com/jmespath/go-jmespath v0.4.0 // indirect
	github.com/jtolds/gls v4.20.0+incompatible // indirect
	github.com/kylelemons/godebug v1.1.0 // indirect
	github.com/lightstep/lightstep-tracer-common/golang/gogo v0.0.0-20210210170715-a8dfcb80d3a7 // indirect
	github.com/lightstep/lightstep-tracer-go v0.25.0 // indirect
	github.com/matttproud/golang_protobuf_extensions v1.0.4 // indirect
	github.com/mitchellh/reflectwalk v1.0.2 // indirect
	github.com/oklog/ulid/v2 v2.0.2 // indirect
	github.com/opentracing/opentracing-go v1.2.0 // indirect
	github.com/philhofer/fwd v1.1.1 // indirect
	github.com/pkg/browser v0.0.0-20210911075715-681adbf594b8 // indirect
	github.com/pkg/errors v0.9.1 // indirect
	github.com/pmezard/go-difflib v1.0.0 // indirect
	github.com/prometheus/client_model v0.3.0 // indirect
	github.com/prometheus/common v0.39.0 // indirect
	github.com/prometheus/procfs v0.8.0 // indirect
	github.com/prometheus/prometheus v0.42.0 // indirect
	github.com/ryszard/goskiplist v0.0.0-20150312221310-2dfbae5fcf46 // indirect
	github.com/shabbyrobe/gocovmerge v0.0.0-20190829150210-3e036491d500 // indirect
	github.com/shirou/gopsutil/v3 v3.21.2 // indirect
	github.com/smartystreets/assertions v1.2.0 // indirect
	github.com/tinylib/msgp v1.1.2 // indirect
	github.com/tklauser/go-sysconf v0.3.4 // indirect
	github.com/tklauser/numcpus v0.2.1 // indirect
	github.com/uber/jaeger-client-go v2.30.0+incompatible // indirect
	github.com/uber/jaeger-lib v2.4.1+incompatible // indirect
	go.opencensus.io v0.24.0 // indirect
	go.uber.org/atomic v1.10.0 // indirect
	golang.org/x/crypto v0.6.0 // indirect
	golang.org/x/exp/typeparams v0.0.0-20220218215828-6cf2b201936e // indirect
	golang.org/x/mod v0.8.0 // indirect
	golang.org/x/sync v0.1.0 // indirect
	golang.org/x/sys v0.5.0 // indirect
	golang.org/x/text v0.7.0 // indirect
	golang.org/x/time v0.3.0 // indirect
	golang.org/x/xerrors v0.0.0-20220907171357-04be3eba64a2 // indirect
	google.golang.org/api v0.110.0 // indirect
	google.golang.org/appengine v1.6.7 // indirect
	google.golang.org/genproto v0.0.0-20230209215440-0dfe4f8abfcc // indirect
	gopkg.in/DataDog/dd-trace-go.v1 v1.32.0 // indirect
	gopkg.in/yaml.v3 v3.0.1 // indirect
)

exclude (
	// CVE-2019-0205
	github.com/apache/thrift v0.12.0
	github.com/apache/thrift v0.13.0

	// CVE-2020-28483
	github.com/gin-gonic/gin v1.4.0
	github.com/gin-gonic/gin v1.6.3

	// CVE-2021-42576
	github.com/microcosm-cc/bluemonday v1.0.2
	github.com/nats-io/jwt v0.3.0

	// CVE-2020-26892
	github.com/nats-io/nats-server/v2 v2.1.2
)
